{
    "key": "group_5daf1292cf559",
    "title": "Content Editor",
    "fields": [
        {
            "key": "field_5daf12a86eda5",
            "label": "Content Editor",
            "name": "content_editor",
            "type": "wysiwyg",
            "instructions": "",
            "required": 0,
            "conditional_logic": 0,
            "wrapper": {
                "width": "",
                "class": "",
                "id": ""
            },
            "default_value": "",
            "tabs": "all",
            "toolbar": "full",
            "media_upload": 1,
            "delay": 0,
            "wpml_cf_preferences": 3
        }
    ],
    "location": [
        [
            {
                "param": "post_type",
                "operator": "!=",
                "value": "event"
            },
            {
                "param": "post_type",
                "operator": "!=",
                "value": "career"
            }
        ]
    ],
    "menu_order": -50,
    "position": "acf_after_title",
    "style": "seamless",
    "label_placement": "top",
    "instruction_placement": "label",
    "hide_on_screen": "",
    "active": 1,
    "description": "",
    "modified": 1572291114
}