{
    "key": "group_5da58ef35c36c",
    "title": "Insights 3 Link-To-Archives",
    "fields": [
        {
            "key": "field_5da590e8873f4",
            "label": "Insights 3 Link-To-Archives",
            "name": "",
            "type": "accordion",
            "instructions": "",
            "required": 0,
            "conditional_logic": 0,
            "wrapper": {
                "width": "",
                "class": "",
                "id": ""
            },
            "open": 0,
            "multi_expand": 0,
            "endpoint": 0,
            "wpml_cf_preferences": 0
        },
        {
            "key": "field_5da58ef36eeb4",
            "label": "Section Properties",
            "name": "sec_prop",
            "type": "clone",
            "instructions": "",
            "required": 0,
            "conditional_logic": 0,
            "wrapper": {
                "width": "",
                "class": "",
                "id": ""
            },
            "wpml_cf_preferences": 3,
            "clone": [
                "group_5da412fb7a654"
            ],
            "display": "group",
            "layout": "block",
            "prefix_label": 1,
            "prefix_name": 1
        },
        {
            "key": "field_5da58fc3d8a5f",
            "label": "Post Types",
            "name": "posttypes",
            "type": "select",
            "instructions": "Please limit your choices up to 3 selections. If not, only the first 3 selected will display on the front end.",
            "required": 0,
            "conditional_logic": 0,
            "wrapper": {
                "width": "",
                "class": "",
                "id": ""
            },
            "wpml_cf_preferences": 3,
            "choices": {
                "service": "Services",
                "news": "News",
                "event": "Events",
                "post": "Blog"
            },
            "default_value": [],
            "allow_null": 0,
            "multiple": 1,
            "ui": 1,
            "ajax": 0,
            "return_format": "array",
            "placeholder": ""
        },
        {
            "key": "field_5da58ef36f27a",
            "label": "Extra Title & Text",
            "name": "x_title_text",
            "type": "clone",
            "instructions": "",
            "required": 0,
            "conditional_logic": 0,
            "wrapper": {
                "width": "",
                "class": "",
                "id": ""
            },
            "wpml_cf_preferences": 3,
            "clone": [
                "group_5da4128bc28af"
            ],
            "display": "group",
            "layout": "block",
            "prefix_label": 1,
            "prefix_name": 1
        },
        {
            "key": "field_5da58ef36f697",
            "label": "Buttons",
            "name": "buttons",
            "type": "clone",
            "instructions": "",
            "required": 0,
            "conditional_logic": 0,
            "wrapper": {
                "width": "",
                "class": "",
                "id": ""
            },
            "clone": [
                "group_5da410a509ea8"
            ],
            "display": "group",
            "layout": "block",
            "prefix_label": 1,
            "prefix_name": 1,
            "wpml_cf_preferences": 3
        },
        {
            "key": "field_5da590f3873f5",
            "label": "Insights 3 Link-To-Archives - END",
            "name": "",
            "type": "accordion",
            "instructions": "",
            "required": 0,
            "conditional_logic": 0,
            "wrapper": {
                "width": "",
                "class": "",
                "id": ""
            },
            "open": 0,
            "multi_expand": 0,
            "endpoint": 1,
            "wpml_cf_preferences": 0
        }
    ],
    "location": [
        [
            {
                "param": "block",
                "operator": "==",
                "value": "acf\/insights-3-archives-block"
            }
        ],
        [
            {
                "param": "page_template",
                "operator": "==",
                "value": "custom-pg-tpl\/resources-page.php"
            }
        ]
    ],
    "menu_order": 0,
    "position": "normal",
    "style": "default",
    "label_placement": "top",
    "instruction_placement": "label",
    "hide_on_screen": "",
    "active": 1,
    "description": "",
    "modified": 1572005469
}